Division,WeightClassKg,Place,Name,Team,BodyweightKg,Best3SquatKg,Best3BenchKg,Best3DeadliftKg,TotalKg,Equipment,Event,Sex
Boys,51.71,1,Pete Rios,Waxahachie,49.21,124.74,65.77,113.4,303.91,Single-ply,SBD,M
Boys,51.71,2,Dylan Hooper,Oakridge School,51.07,99.79,54.43,108.86,263.08,Single-ply,SBD,M
Boys,55.79,1,Jon Mora,Bishop Lynch,54.84,147.42,77.11,181.44,405.97,Single-ply,SBD,M
Boys,55.79,2,Damian Bissant,Cedar Hill,55.29,151.95,74.84,156.49,383.29,Single-ply,SBD,M
Boys,55.79,3,Michael Vera,Carrollton Ranchview,52.98,113.4,49.9,113.4,276.69,Single-ply,SBD,M
Boys,55.79,4,Rafael Sandoval,Plano John Paul II,54.84,106.59,61.23,108.86,276.69,Single-ply,SBD,M
Boys,55.79,5,Sam Fredrick,Coppell,54.43,97.52,52.16,102.06,251.74,Single-ply,SBD,M
Boys,55.79,6,Aiden Johnston,Dallas Jesuit,53.8,83.91,49.9,113.4,247.21,Single-ply,SBD,M
Boys,55.79,7,Michael Le #2,Richardson Berkner,53.61,104.33,52.16,74.84,231.33,Single-ply,SBD,M
Boys,59.87,1,Larkin Alexander,Waxahachie,59.42,176.9,115.67,174.63,467.2,Single-ply,SBD,M
Boys,59.87,2,Kareem Williams,Carrollton Ranchview,57.29,185.97,83.91,179.17,449.06,Single-ply,SBD,M
Boys,59.87,3,Kendall Kyles,Carrollton Ranchview,59.83,149.69,83.91,165.56,399.16,Single-ply,SBD,M
Boys,59.87,4,Corey Chappell,Garland Rowlett,59.87,142.88,83.91,167.83,394.63,Single-ply,SBD,M
Boys,59.87,5,Zack Rose,Cedar Hill,59.69,140.61,77.11,174.63,392.36,Single-ply,SBD,M
Boys,59.87,6,Yousef Mywaquet,Waxahachie,58.88,140.61,97.52,151.95,390.09,Single-ply,SBD,M
Boys,67.13,7,Trey Willis,Oakridge School,60.01,81.65,45.36,136.08,263.08,Single-ply,SBD,M
Boys,59.87,8,Gabe Bibbs,Dallas Jesuit,59.65,92.99,52.16,86.18,231.33,Single-ply,SBD,M
Boys,59.87,DQ,Jordan Clark,Richardson Pearce,58.79,,,,,Single-ply,SBD,M
Boys,59.87,DQ,Grant Miller,Dallas Highland Park,58.97,,,,,Single-ply,SBD,M
Boys,67.13,DQ,Paco Silos,Carrollton Ranchview,60.1,124.74,,,,Single-ply,SBD,M
Boys,59.87,DQ,William Hubbard,Dallas Highland Park,58.97,88.45,,,,Single-ply,SBD,M
Boys,67.13,1,Jacob Head,Bishop Lynch,65.68,226.8,120.2,199.58,546.58,Single-ply,SBD,M
Boys,67.13,2,John Wrenn,Bishop Lynch,64.73,199.58,111.13,185.97,496.68,Single-ply,SBD,M
Boys,67.13,3,Alex Keeton,Dallas Highland Park,67.13,181.44,113.4,165.56,460.4,Single-ply,SBD,M
Boys,67.13,4,Anthony Wagner,Garland Rowlett,66.63,172.37,102.06,163.29,437.72,Single-ply,SBD,M
Boys,67.13,5,Carter Gibson,Dallas Highland Park,67.13,129.27,92.99,147.42,369.68,Single-ply,SBD,M
Boys,67.13,6,Erick Ginn,Carrollton Ranchview,61.42,129.27,65.77,133.81,328.85,Single-ply,SBD,M
Boys,67.13,7,Cooper Townsley,Oakridge School,64.73,122.47,68.04,136.08,326.59,Single-ply,SBD,M
Boys,67.13,8,Mason Lowrimore,Garland Rowlett,65.86,115.67,70.31,138.35,324.32,Single-ply,SBD,M
Boys,67.13,9,Anthony Smith #7,Carrollton Ranchview,66.63,113.4,74.84,129.27,317.51,Single-ply,SBD,M
Boys,67.13,10,Johnson Jiang,Richardson Pearce,60.24,97.52,74.84,108.86,281.23,Single-ply,SBD,M
Boys,67.13,11,Edward Toohey,Dallas Highland Park,66.22,95.25,56.7,117.93,269.89,Single-ply,SBD,M
Boys,67.13,12,Davis Moore,Dallas Highland Park,64.41,102.06,56.7,104.33,263.08,Single-ply,SBD,M
Boys,67.13,13,John McAnalley,Dallas Highland Park,62.6,77.11,56.7,104.33,238.14,Single-ply,SBD,M
Boys,67.13,DQ,Jafus Johnson,Cedar Hill,66.9,188.24,102.06,,,Single-ply,SBD,M
Boys,67.13,DQ,Christian McClain,Carrollton Ranchview,62.87,,,,,Single-ply,SBD,M
Boys,67.13,DQ,Costa Kell,Dallas Highland Park,63.5,111.13,,,,Single-ply,SBD,M
Boys,67.13,DQ,Tanner Halsey,Dallas Highland Park,67.13,124.74,,140.61,,Single-ply,SBD,M
Boys,67.13,DQ,Mickey Landen,Dallas Highland Park,64.86,95.25,,,,Single-ply,SBD,M
Boys,74.84,1,Ace Clear,Bishop Lynch,73.71,208.65,106.59,206.38,521.63,Single-ply,SBD,M
Boys,74.84,2,Tarik Crear,Cedar Hill,74.12,185.97,104.33,208.65,498.95,Single-ply,SBD,M
Boys,74.84,3,Josh Pantoja,Bishop Lynch,71.67,183.7,81.65,204.12,469.47,Single-ply,SBD,M
Boys,74.84,4,Avery Wrenn,Garland Rowlett,71.99,147.42,111.13,165.56,424.11,Single-ply,SBD,M
Boys,74.84,5,Bowie Tomlinson,Richardson Pearce,74.16,170.1,90.72,163.29,424.11,Single-ply,SBD,M
Boys,74.84,6,Mike Stephens,Dallas Jesuit,73.94,163.29,106.59,151.95,421.84,Single-ply,SBD,M
Boys,74.84,7,Chris Mavor,Dallas Jesuit,73.44,161.03,88.45,156.49,405.97,Single-ply,SBD,M
Boys,74.84,8,Preston Martin,Dallas Jesuit,73.21,161.03,79.38,158.76,399.16,Single-ply,SBD,M
Boys,74.84,9,Brandon Rose,Plano John Paul II,73.57,124.74,83.91,188.24,396.89,Single-ply,SBD,M
Boys,74.84,10,Alec Bradley,Plano John Paul II,74.25,124.74,102.06,161.03,387.82,Single-ply,SBD,M
Boys,74.84,11,Luke Olinger,Dallas Jesuit,72.98,151.95,79.38,151.95,383.29,Single-ply,SBD,M
Boys,74.84,12,Yedidiah Louis,Richardson Berkner,70.4,136.08,77.11,158.76,371.95,Single-ply,SBD,M
Boys,74.84,13,Jack Peabody,Plano John Paul II,74.16,115.67,88.45,145.15,349.27,Single-ply,SBD,M
Boys,74.84,14,Nick Finer,Plano John Paul II,73.03,117.93,81.65,147.42,347,Single-ply,SBD,M
Boys,74.84,15,Austin Schaffer,Oakridge School,74.07,113.4,56.7,140.61,310.71,Single-ply,SBD,M
Boys,74.84,16,Conner Hunt,Dallas Highland Park,68.04,106.59,68.04,122.47,297.1,Single-ply,SBD,M
Boys,74.84,17,Sam Malone,Dallas Highland Park,71.67,92.99,52.16,104.33,249.48,Single-ply,SBD,M
Boys,74.84,18,Chris Moize,Dallas Highland Park,68.04,95.25,43.09,104.33,242.67,Single-ply,SBD,M
Boys,74.84,19,Price Peters,Dallas Highland Park,69.85,92.99,52.16,92.99,238.14,Single-ply,SBD,M
Boys,74.84,DQ,Kent Preston,Richardson Pearce,74.84,,,,,Single-ply,SBD,M
Boys,74.84,DQ,Michael Huddleston,Dallas Highland Park,74.39,,,,,Single-ply,SBD,M
Boys,82.1,DQ,Frank Mocek,Plano John Paul II,74.89,117.93,,,,Single-ply,SBD,M
Boys,82.1,1,Craig Renfro,Waxahachie,82.01,233.6,124.74,222.26,580.6,Single-ply,SBD,M
Boys,82.1,2,Tom Nguyen,Garland Rowlett,81.78,192.78,117.93,233.6,544.31,Single-ply,SBD,M
Boys,82.1,3,Isiah Lewis,Cedar Hill,80.97,208.65,108.86,206.38,523.9,Single-ply,SBD,M
Boys,82.1,4,Marcus Wimby,Carrollton Ranchview,76.7,192.78,120.2,206.38,519.36,Single-ply,SBD,M
Boys,82.1,5,Ian Hayashi,Dallas Highland Park,82.1,197.31,122.47,199.58,519.36,Single-ply,SBD,M
Boys,82.1,6,Aj Stephens,Cedar Hill,77.97,158.76,97.52,188.24,444.52,Single-ply,SBD,M
Boys,82.1,7,Austin Vanloon,Garland Rowlett,78.79,151.95,97.52,195.04,444.52,Single-ply,SBD,M
Boys,89.81,8,Riley Harbert,Plano John Paul II,82.33,158.76,99.79,174.63,433.18,Single-ply,SBD,M
Boys,82.1,9,Jason Cho #3,Richardson Pearce,80.83,165.56,108.86,156.49,430.91,Single-ply,SBD,M
Boys,82.1,10,Michael Kim,Carrollton Ranchview,81.37,179.17,83.91,165.56,428.64,Single-ply,SBD,M
Boys,82.1,11,Will Levanas,Dallas Highland Park,79.83,124.74,97.52,181.44,403.7,Single-ply,SBD,M
Boys,82.1,12,Charlie Mitchell #1,Dallas Highland Park,79.38,147.42,83.91,170.1,401.43,Single-ply,SBD,M
Boys,82.1,13,Songbo Cao,Dallas Highland Park,80.74,151.95,83.91,161.03,396.89,Single-ply,SBD,M
Boys,82.1,14,Luke Walter,Dallas Highland Park,82.1,115.67,102.06,176.9,394.63,Single-ply,SBD,M
Boys,82.1,15,Aaron Reck,Coppell,80.69,136.08,102.06,154.22,392.36,Single-ply,SBD,M
Boys,82.1,16,John Euart,Dallas Jesuit,80.24,151.95,83.91,151.95,387.82,Single-ply,SBD,M
Boys,82.1,17,Caz Orr,Dallas Highland Park,81.65,142.88,90.72,142.88,376.48,Single-ply,SBD,M
Boys,82.1,18,Alex Jackson #4,Richardson Berkner,78.15,147.42,90.72,136.08,374.21,Single-ply,SBD,M
Boys,82.1,19,Matt Augustine,Coppell,76.88,124.74,68.04,147.42,340.19,Single-ply,SBD,M
Boys,82.1,20,Chris Mitchell #4,Dallas Highland Park,79.38,111.13,56.7,136.08,303.91,Single-ply,SBD,M
Boys,82.1,21,Brent Janss,Dallas Highland Park,77.11,86.18,95.25,111.13,292.57,Single-ply,SBD,M
Boys,82.1,22,Trevor Anderson,Dallas Highland Park,79.83,92.99,56.7,113.4,263.08,Single-ply,SBD,M
Boys,82.1,DQ,Miguel Lee,Dallas Highland Park,81.65,,,,,Single-ply,SBD,M
Boys,82.1,DQ,Alex Dorris,Dallas Highland Park,79.38,,,,,Single-ply,SBD,M
Boys,82.1,DQ,Jack Walter,Dallas Highland Park,79.38,113.4,,,,Single-ply,SBD,M
Boys,82.1,DQ,Brooks Oden,Dallas Highland Park,77.11,,,,,Single-ply,SBD,M
Boys,82.1,DQ,Jackson Tittle,Dallas Highland Park,79.38,151.95,,,,Single-ply,SBD,M
Boys,82.1,DQ,Michael Carranza,Richardson Pearce,79.88,,,,,Single-ply,SBD,M
Boys,82.1,DQ,Tyler Jackson #3,Richardson Berkner,78.02,108.86,,,,Single-ply,SBD,M
Boys,82.1,DQ,Luke Russell,Richardson Berkner,76.16,147.42,,,,Single-ply,SBD,M
Boys,89.81,1,Nick Karakosky,Bishop Lynch,82.42,204.12,129.27,204.12,537.51,Single-ply,SBD,M
Boys,89.81,2,Efe Nesiama,Coppell,87.63,188.24,104.33,215.46,508.02,Single-ply,SBD,M
Boys,89.81,3,Brandon Ross,Carrollton Ranchview,83.87,195.04,95.25,192.78,483.08,Single-ply,SBD,M
Boys,89.81,4,Calvin Estrada,Garland Rowlett,88.54,183.7,115.67,183.7,483.08,Single-ply,SBD,M
Boys,89.81,5,Blake Glenn,Garland Rowlett,84.46,188.24,97.52,190.51,476.27,Single-ply,SBD,M
Boys,89.81,6,Mason Shaw,Dallas Highland Park,83.46,174.63,108.86,190.51,474,Single-ply,SBD,M
Boys,89.81,7,Tanner Masters,Coppell,84.96,165.56,111.13,181.44,458.13,Single-ply,SBD,M
Boys,89.81,8,David Kennedy,Oakridge School,84.69,154.22,104.33,188.24,446.79,Single-ply,SBD,M
Boys,89.81,9,Ja'Michael Smith,Richardson Berkner,86.55,147.42,102.06,183.7,433.18,Single-ply,SBD,M
Boys,89.81,10,Juan Sierra,Richardson Berkner,83.78,181.44,97.52,151.95,430.91,Single-ply,SBD,M
Boys,89.81,11,Travis Alford,Dallas Highland Park,83.91,163.29,106.59,154.22,424.11,Single-ply,SBD,M
Boys,89.81,12,Russell Rice,Dallas Highland Park,84.82,142.88,122.47,151.95,417.3,Single-ply,SBD,M
Boys,89.81,13,Alex Llop,Plano John Paul II,89.81,129.27,92.99,151.95,374.21,Single-ply,SBD,M
Boys,89.81,14,Jack Ceverha,Dallas Highland Park,87.09,124.74,86.18,151.95,362.87,Single-ply,SBD,M
Boys,89.81,15,Kamarn Fazal,Oakridge School,82.42,95.25,58.97,149.69,303.91,Single-ply,SBD,M
Boys,89.81,16,Jack Laughlin,Dallas Highland Park,87.54,95.25,68.04,124.74,288.03,Single-ply,SBD,M
Boys,89.81,17,Sahil Kalsi,Oakridge School,86.41,79.38,49.9,104.33,233.6,Single-ply,SBD,M
Boys,89.81,DQ,Travis Bowder,Plano John Paul II,86.95,,,,,Single-ply,SBD,M
Boys,89.81,DQ,Ross Watson #2,Dallas Highland Park,87.09,113.4,,,,Single-ply,SBD,M
Boys,89.81,DQ,Josh Wisely,Carrollton Ranchview,89.81,,,,,Single-ply,SBD,M
Boys,89.81,DQ,Hayden Williams,Dallas Jesuit,84.5,,,,,Single-ply,SBD,M
Boys,89.81,DQ,Robert Monk,Richardson Pearce,87.36,,,,,Single-ply,SBD,M
Boys,89.81,DQ,Edgar Esparza,Richardson Pearce,88.72,,,,,Single-ply,SBD,M
Boys,99.79,1,Bryan Randall,Waxahachie,98.75,244.94,163.29,244.94,653.17,Single-ply,SBD,M
Boys,99.79,2,Darius Stubblefield,Cedar Hill,97.7,229.06,154.22,240.4,623.69,Single-ply,SBD,M
Boys,99.79,3,Akunda Esin,Dallas Jesuit,94.03,238.14,124.74,238.14,601.01,Single-ply,SBD,M
Boys,99.79,4,Jude Akpunky,Cedar Hill,99.11,195.04,129.27,254.01,578.33,Single-ply,SBD,M
Boys,99.79,5,Rene Zavala,Waxahachie,99.52,222.26,142.88,199.58,564.72,Single-ply,SBD,M
Boys,99.79,6,Rico Coloso,Bishop Lynch,93.85,217.72,117.93,226.8,562.45,Single-ply,SBD,M
Boys,99.79,7,Chris Roberts,Cedar Hill,90.85,204.12,145.15,210.92,560.19,Single-ply,SBD,M
Boys,99.79,8,Tony Dwyer,Bishop Lynch,97.93,215.46,127.01,215.46,557.92,Single-ply,SBD,M
Boys,99.79,9,Tony Perez,Dallas Highland Park,95.71,204.12,129.27,206.38,539.77,Single-ply,SBD,M
Boys,99.79,10,Bradfield Biggers,Dallas Highland Park,93.44,204.12,124.74,204.12,532.97,Single-ply,SBD,M
Boys,99.79,11,Nick Salinaro,Dallas Highland Park,97.07,181.44,117.93,208.65,508.02,Single-ply,SBD,M
Boys,99.79,12,Dwight MacBreyer,Carrollton Ranchview,93.8,197.31,113.4,192.78,503.49,Single-ply,SBD,M
Boys,99.79,13,Julius Hall,Carrollton Ranchview,95.35,181.44,104.33,192.78,478.54,Single-ply,SBD,M
Boys,99.79,14,Grant Johnson,Oakridge School,98.43,181.44,92.99,170.1,444.52,Single-ply,SBD,M
Boys,99.79,15,Antonio Valdez,Richardson Berkner,99.7,183.7,104.33,142.88,430.91,Single-ply,SBD,M
Boys,99.79,16,Jose Zetino,Carrollton Ranchview,93.67,172.37,99.79,147.42,419.57,Single-ply,SBD,M
Boys,99.79,17,Charlie McKenzie,Dallas Highland Park,90.72,170.1,97.52,149.69,417.3,Single-ply,SBD,M
Boys,99.79,18,Michael Sabeti,Coppell,98.2,124.74,111.13,181.44,417.3,Single-ply,SBD,M
Boys,99.79,19,Joey Clegg,Garland Rowlett,95.89,151.95,88.45,170.1,410.5,Single-ply,SBD,M
Boys,99.79,20,Crawford Thompson,Dallas Highland Park,90.72,142.88,83.91,124.74,351.53,Single-ply,SBD,M
Boys,99.79,21,Alex Dolabi,Oakridge School,92.58,124.74,79.38,131.54,335.66,Single-ply,SBD,M
Boys,99.79,22,Jake Hockett,Dallas Highland Park,92.99,102.06,56.7,115.67,274.42,Single-ply,SBD,M
Boys,99.79,DQ,Chris Koskovich,Dallas Jesuit,99.56,,,,,Single-ply,SBD,M
Boys,109.77,1,Dustin Upchurch,Waxahachie,109.18,263.08,136.08,226.8,625.96,Single-ply,SBD,M
Boys,109.77,2,Sebastian Sara,Carrollton Ranchview,106.41,226.8,136.08,204.12,566.99,Single-ply,SBD,M
Boys,109.77,3,Coleman Glass,Dallas Highland Park,105.69,199.58,165.56,176.9,542.04,Single-ply,SBD,M
Boys,109.77,4,Mike Rinehart,Bishop Lynch,104.28,192.78,108.86,215.46,517.1,Single-ply,SBD,M
Boys,109.77,5,Xavier Frederick,Carrollton Ranchview,104.19,190.51,120.2,192.78,503.49,Single-ply,SBD,M
Boys,109.77,6,Tanner Stone,Dallas Highland Park,106.14,176.9,124.74,176.9,478.54,Single-ply,SBD,M
Boys,109.77,7,Clay Crews,Dallas Highland Park,104.33,181.44,120.2,174.63,476.27,Single-ply,SBD,M
Boys,109.77,8,Clay Rawlinson,Richardson Pearce,100.56,147.42,138.35,174.63,460.4,Single-ply,SBD,M
Boys,109.77,9,Ethan Beasley,Dallas Highland Park,107.95,183.7,104.33,170.1,458.13,Single-ply,SBD,M
Boys,109.77,10,Tanner Hutt,Dallas Highland Park,106.59,151.95,120.2,174.63,446.79,Single-ply,SBD,M
Boys,109.77,11,Bennett Campbell,Dallas Highland Park,101.6,165.56,92.99,181.44,439.98,Single-ply,SBD,M
Boys,109.77,12,Daquan Washington,Carrollton Ranchview,101.15,167.83,99.79,170.1,437.72,Single-ply,SBD,M
Boys,109.77,13,Zach Talent,Garland Rowlett,100.11,158.76,111.13,165.56,435.45,Single-ply,SBD,M
Boys,109.77,14,William Barns,Dallas Highland Park,108.86,158.76,111.13,165.56,435.45,Single-ply,SBD,M
Boys,109.77,15,Ralph Mendiola,Plano John Paul II,105.41,158.76,92.99,156.49,408.23,Single-ply,SBD,M
Boys,109.77,16,Jack Summers,Dallas Jesuit,102.92,142.88,102.06,158.76,403.7,Single-ply,SBD,M
Boys,109.77,17,Jj Gustafson,Dallas Jesuit,106,138.35,88.45,138.35,365.14,Single-ply,SBD,M
Boys,109.77,DQ,Connor Frieze,Dallas Jesuit,103.87,147.42,,,,Single-ply,SBD,M
Boys,109.77,DQ,Patrick Hoerter,Richardson Pearce,108.95,,,,,Single-ply,SBD,M
Boys,124.74,1,Ben Davis #4,Waxahachie,115.67,260.82,127.01,231.33,619.15,Single-ply,SBD,M
Boys,124.74,2,Richard Johnson #6,Carrollton Ranchview,111.58,229.06,145.15,222.26,596.47,Single-ply,SBD,M
Boys,124.74,3,Anthony Pullins,Cedar Hill,117.93,215.46,136.08,199.58,551.11,Single-ply,SBD,M
Boys,124.74,4,Bo Keane,Bishop Lynch,115.12,195.04,113.4,217.72,526.17,Single-ply,SBD,M
Boys,124.74,5,Oni Omoile,Coppell,118.52,204.12,122.47,195.04,521.63,Single-ply,SBD,M
Boys,124.74,6,Tyron Davis,Waxahachie,121.97,181.44,117.93,208.65,508.02,Single-ply,SBD,M
Boys,124.74,7,Deshon Purtue,Richardson Berkner,123.42,204.12,102.06,174.63,480.81,Single-ply,SBD,M
Boys,124.74,8,Jared Hughes,Plano John Paul II,116.26,192.78,133.81,129.27,455.86,Single-ply,SBD,M
Boys,124.74,DQ,Feyi Oyewole,Oakridge School,123.06,102.06,147.42,,,Single-ply,SBD,M
Boys,124.74,DQ,Vinny Wurst,Bishop Lynch,119.34,229.06,129.27,,,Single-ply,SBD,M
Boys,124.74,DQ,Jake Anthony,Richardson Pearce,111.99,,,,,Single-ply,SBD,M
Boys,124.74+,1,Gennard Johnson,Waxahachie,139.98,272.16,142.88,272.16,687.19,Single-ply,SBD,M
Boys,124.74+,2,Adarius Epps,Cedar Hill,133.4,247.21,154.22,238.14,639.57,Single-ply,SBD,M
Boys,124.74+,3,Nick Trieger,Bishop Lynch,136.35,215.46,149.69,204.12,569.26,Single-ply,SBD,M
Boys,124.74+,4,Brian Gutierrez,Garland Rowlett,151.05,233.6,117.93,217.72,569.26,Single-ply,SBD,M
Boys,124.74+,5,Paul Paris,Dallas Jesuit,127.78,170.1,95.25,161.03,426.38,Single-ply,SBD,M
